^C:\USERS\USER\SOURCE\REPOS\HA2\HA2\X64\DEBUG\BODY.OBJ|C:\USERS\USER\SOURCE\REPOS\HA2\HA2\X64\DEBUG\BODYQUEUE.OBJ|C:\USERS\USER\SOURCE\REPOS\HA2\HA2\X64\DEBUG\CONE.OBJ|C:\USERS\USER\SOURCE\REPOS\HA2\HA2\X64\DEBUG\CUBE.OBJ|C:\USERS\USER\SOURCE\REPOS\HA2\HA2\X64\DEBUG\CUBOID.OBJ|C:\USERS\USER\SOURCE\REPOS\HA2\HA2\X64\DEBUG\CYLINDER.OBJ|C:\USERS\USER\SOURCE\REPOS\HA2\HA2\X64\DEBUG\HOUSE.OBJ|C:\USERS\USER\SOURCE\REPOS\HA2\HA2\X64\DEBUG\LENGTH.OBJ|C:\USERS\USER\SOURCE\REPOS\HA2\HA2\X64\DEBUG\MAIN.OBJ|C:\USERS\USER\SOURCE\REPOS\HA2\HA2\X64\DEBUG\POINT3D.OBJ|C:\USERS\USER\SOURCE\REPOS\HA2\HA2\X64\DEBUG\PRISM.OBJ|C:\USERS\USER\SOURCE\REPOS\HA2\HA2\X64\DEBUG\SPHERE.OBJ|C:\USERS\USER\SOURCE\REPOS\HA2\HA2\X64\DEBUG\TOWER.OBJ
C:\USERS\USER\SOURCE\REPOS\HA2\X64\DEBUG\HA2.EXE
C:\USERS\USER\SOURCE\REPOS\HA2\X64\DEBUG\HA2.ILK
C:\USERS\USER\SOURCE\REPOS\HA2\X64\DEBUG\HA2.PDB
