^C:\USERS\USER\SOURCE\REPOS\HA2\HA2\DEBUG\BODY.OBJ|C:\USERS\USER\SOURCE\REPOS\HA2\HA2\DEBUG\BODYQUEUE.OBJ|C:\USERS\USER\SOURCE\REPOS\HA2\HA2\DEBUG\CONE.OBJ|C:\USERS\USER\SOURCE\REPOS\HA2\HA2\DEBUG\CUBE.OBJ|C:\USERS\USER\SOURCE\REPOS\HA2\HA2\DEBUG\CUBOID.OBJ|C:\USERS\USER\SOURCE\REPOS\HA2\HA2\DEBUG\CYLINDER.OBJ|C:\USERS\USER\SOURCE\REPOS\HA2\HA2\DEBUG\HOUSE.OBJ|C:\USERS\USER\SOURCE\REPOS\HA2\HA2\DEBUG\LENGTH.OBJ|C:\USERS\USER\SOURCE\REPOS\HA2\HA2\DEBUG\MAIN.OBJ|C:\USERS\USER\SOURCE\REPOS\HA2\HA2\DEBUG\POINT3D.OBJ|C:\USERS\USER\SOURCE\REPOS\HA2\HA2\DEBUG\PRISM.OBJ|C:\USERS\USER\SOURCE\REPOS\HA2\HA2\DEBUG\SPHERE.OBJ|C:\USERS\USER\SOURCE\REPOS\HA2\HA2\DEBUG\TOWER.OBJ
C:\PROGRAM FILES (X86)\WINDOWS KITS\10\LIB\10.0.17134.0\UM\X86\KERNEL32.LIB
C:\PROGRAM FILES (X86)\WINDOWS KITS\10\LIB\10.0.17134.0\UM\X86\USER32.LIB
C:\PROGRAM FILES (X86)\WINDOWS KITS\10\LIB\10.0.17134.0\UM\X86\GDI32.LIB
C:\PROGRAM FILES (X86)\WINDOWS KITS\10\LIB\10.0.17134.0\UM\X86\WINSPOOL.LIB
C:\PROGRAM FILES (X86)\WINDOWS KITS\10\LIB\10.0.17134.0\UM\X86\COMDLG32.LIB
C:\PROGRAM FILES (X86)\WINDOWS KITS\10\LIB\10.0.17134.0\UM\X86\ADVAPI32.LIB
C:\PROGRAM FILES (X86)\WINDOWS KITS\10\LIB\10.0.17134.0\UM\X86\SHELL32.LIB
C:\PROGRAM FILES (X86)\WINDOWS KITS\10\LIB\10.0.17134.0\UM\X86\OLE32.LIB
C:\PROGRAM FILES (X86)\WINDOWS KITS\10\LIB\10.0.17134.0\UM\X86\OLEAUT32.LIB
C:\PROGRAM FILES (X86)\WINDOWS KITS\10\LIB\10.0.17134.0\UM\X86\UUID.LIB
C:\PROGRAM FILES (X86)\WINDOWS KITS\10\LIB\10.0.17134.0\UM\X86\ODBC32.LIB
C:\PROGRAM FILES (X86)\WINDOWS KITS\10\LIB\10.0.17134.0\UM\X86\ODBCCP32.LIB
C:\USERS\USER\SOURCE\REPOS\HA2\HA2\DEBUG\BODY.OBJ
C:\USERS\USER\SOURCE\REPOS\HA2\HA2\DEBUG\BODYQUEUE.OBJ
C:\USERS\USER\SOURCE\REPOS\HA2\HA2\DEBUG\CONE.OBJ
C:\USERS\USER\SOURCE\REPOS\HA2\HA2\DEBUG\CUBE.OBJ
C:\USERS\USER\SOURCE\REPOS\HA2\HA2\DEBUG\CUBOID.OBJ
C:\USERS\USER\SOURCE\REPOS\HA2\HA2\DEBUG\CYLINDER.OBJ
C:\USERS\USER\SOURCE\REPOS\HA2\HA2\DEBUG\HOUSE.OBJ
C:\USERS\USER\SOURCE\REPOS\HA2\HA2\DEBUG\LENGTH.OBJ
C:\USERS\USER\SOURCE\REPOS\HA2\HA2\DEBUG\MAIN.OBJ
C:\USERS\USER\SOURCE\REPOS\HA2\HA2\DEBUG\POINT3D.OBJ
C:\USERS\USER\SOURCE\REPOS\HA2\HA2\DEBUG\PRISM.OBJ
C:\USERS\USER\SOURCE\REPOS\HA2\HA2\DEBUG\SPHERE.OBJ
C:\USERS\USER\SOURCE\REPOS\HA2\HA2\DEBUG\TOWER.OBJ
C:\WINDOWS\GLOBALIZATION\SORTING\SORTDEFAULT.NLS
C:\PROGRAM FILES (X86)\MICROSOFT VISUAL STUDIO\2017\COMMUNITY\VC\TOOLS\MSVC\14.15.26726\LIB\X86\MSVCPRTD.LIB
C:\PROGRAM FILES (X86)\MICROSOFT VISUAL STUDIO\2017\COMMUNITY\VC\TOOLS\MSVC\14.15.26726\LIB\X86\MSVCRTD.LIB
C:\PROGRAM FILES (X86)\MICROSOFT VISUAL STUDIO\2017\COMMUNITY\VC\TOOLS\MSVC\14.15.26726\LIB\X86\OLDNAMES.LIB
C:\PROGRAM FILES (X86)\MICROSOFT VISUAL STUDIO\2017\COMMUNITY\VC\TOOLS\MSVC\14.15.26726\LIB\X86\VCRUNTIMED.LIB
C:\PROGRAM FILES (X86)\WINDOWS KITS\10\LIB\10.0.17134.0\UCRT\X86\UCRTD.LIB
